%YAML 1.1
%TAG !u! tag:unity3d.com,2011:
--- !u!1001 &100100000
Prefab:
  m_ObjectHideFlags: 1
  serializedVersion: 2
  m_Modification:
    m_TransformParent: {fileID: 0}
    m_Modifications: []
    m_RemovedComponents: []
  m_ParentPrefab: {fileID: 0}
  m_RootGameObject: {fileID: 1866112506309932}
  m_IsPrefabParent: 1
--- !u!1 &1045788361442276
GameObject:
  m_ObjectHideFlags: 0
  m_PrefabParentObject: {fileID: 0}
  m_PrefabInternal: {fileID: 100100000}
  serializedVersion: 5
  m_Component:
  - component: {fileID: 4694207398732068}
  - component: {fileID: 212605084647709956}
  m_Layer: 0
  m_Name: Graphics
  m_TagString: Untagged
  m_Icon: {fileID: 0}
  m_NavMeshLayer: 0
  m_StaticEditorFlags: 0
  m_IsActive: 1
--- !u!1 &1866112506309932
GameObject:
  m_ObjectHideFlags: 0
  m_PrefabParentObject: {fileID: 0}
  m_PrefabInternal: {fileID: 100100000}
  serializedVersion: 5
  m_Component:
  - component: {fileID: 4400617093465448}
  - component: {fileID: 60462167223783868}
  - component: {fileID: 50852472242003458}
  - component: {fileID: 114361965159821442}
  - component: {fileID: 114866186784778254}
  m_Layer: 0
  m_Name: HexagonMiddle
  m_TagString: Untagged
  m_Icon: {fileID: 0}
  m_NavMeshLayer: 0
  m_StaticEditorFlags: 0
  m_IsActive: 1
--- !u!4 &4400617093465448
Transform:
  m_ObjectHideFlags: 1
  m_PrefabParentObject: {fileID: 0}
  m_PrefabInternal: {fileID: 100100000}
  m_GameObject: {fileID: 1866112506309932}
  m_LocalRotation: {x: -0, y: -0, z: -0, w: 1}
  m_LocalPosition: {x: 11.17, y: -12, z: 12}
  m_LocalScale: {x: 1, y: 1, z: 1}
  m_Children:
  - {fileID: 4694207398732068}
  m_Father: {fileID: 0}
  m_RootOrder: 0
  m_LocalEulerAnglesHint: {x: 0, y: 0, z: 0}
--- !u!4 &4694207398732068
Transform:
  m_ObjectHideFlags: 1
  m_PrefabParentObject: {fileID: 0}
  m_PrefabInternal: {fileID: 100100000}
  m_GameObject: {fileID: 1045788361442276}
  m_LocalRotation: {x: -0, y: -0, z: -0, w: 1}
  m_LocalPosition: {x: 0, y: 0.03, z: 0}
  m_LocalScale: {x: 5.6, y: 5.6, z: 1}
  m_Children: []
  m_Father: {fileID: 4400617093465448}
  m_RootOrder: 0
  m_LocalEulerAnglesHint: {x: 0, y: 0, z: 0}
--- !u!50 &50852472242003458
Rigidbody2D:
  serializedVersion: 4
  m_ObjectHideFlags: 1
  m_PrefabParentObject: {fileID: 0}
  m_PrefabInternal: {fileID: 100100000}
  m_GameObject: {fileID: 1866112506309932}
  m_BodyType: 0
  m_Simulated: 1
  m_UseFullKinematicContacts: 0
  m_UseAutoMass: 0
  m_Mass: 10
  m_LinearDrag: 1
  m_AngularDrag: 1
  m_GravityScale: 20
  m_Material: {fileID: 6200000, guid: a083130380f27b84696c7f3211aed024, type: 2}
  m_Interpolate: 0
  m_SleepingMode: 1
  m_CollisionDetection: 0
  m_Constraints: 0
--- !u!60 &60462167223783868
PolygonCollider2D:
  m_ObjectHideFlags: 1
  m_PrefabParentObject: {fileID: 0}
  m_PrefabInternal: {fileID: 100100000}
  m_GameObject: {fileID: 1866112506309932}
  m_Enabled: 1
  m_Density: 1
  m_Material: {fileID: 6200000, guid: a083130380f27b84696c7f3211aed024, type: 2}
  m_IsTrigger: 0
  m_UsedByEffector: 0
  m_UsedByComposite: 0
  m_Offset: {x: 0, y: 0}
  m_SpriteTilingProperty:
    border: {x: 0, y: 0, z: 0, w: 0}
    pivot: {x: 0.5, y: 0.5}
    oldSize: {x: 1.87, y: 1.56}
    newSize: {x: 5.12, y: 5.12}
    adaptiveTilingThreshold: 0.5
    drawMode: 0
    adaptiveTiling: 0
  m_AutoTiling: 0
  m_Points:
    m_Paths:
    - - {x: -4, y: 0}
      - {x: -2, y: -3.46}
      - {x: 2, y: -3.46}
      - {x: 4, y: 0}
      - {x: 2, y: 3.46}
      - {x: -2, y: 3.46}
--- !u!114 &114361965159821442
MonoBehaviour:
  m_ObjectHideFlags: 1
  m_PrefabParentObject: {fileID: 0}
  m_PrefabInternal: {fileID: 100100000}
  m_GameObject: {fileID: 1866112506309932}
  m_Enabled: 1
  m_EditorHideFlags: 0
  m_Script: {fileID: 11500000, guid: f2d3e993c13b84349be8db2fb2504c3a, type: 3}
  m_Name: 
  m_EditorClassIdentifier: 
  Marker: Skins/Lemings/HexagonMiddle
--- !u!114 &114866186784778254
MonoBehaviour:
  m_ObjectHideFlags: 1
  m_PrefabParentObject: {fileID: 0}
  m_PrefabInternal: {fileID: 100100000}
  m_GameObject: {fileID: 1866112506309932}
  m_Enabled: 1
  m_EditorHideFlags: 0
  m_Script: {fileID: 11500000, guid: 375f9bd14df515f4f8774dbb7020170c, type: 3}
  m_Name: 
  m_EditorClassIdentifier: 
  m_force: 1000
  m_BlackSprite: {fileID: 21300000, guid: 86a0f30835f46d24faf0a46b06ca55b7, type: 3}
  m_BlackMat: {fileID: 0}
  m_GreyMat: {fileID: 0}
  m_mask:
    serializedVersion: 2
    m_Bits: 16
  m_minVelocity: 0.3
  m_minAngle: 4
  m_GoodAngle: 60
  m_hitEffect: {fileID: 1160913338632668, guid: 2a2c6f9cc7513644bae177b6cb10d60d,
    type: 2}
  m_SettleEffect: {fileID: 0}
  m_bottomHitEffect: {fileID: 1920819126607192, guid: 6540adb64c534b543ad2132ee62d1c1a,
    type: 2}
  isActive: 1
  m_spriteBase: []
  m_DestroyEffect: {fileID: 0}
  m_baseColor: {r: 0.14, g: 0.972549, b: 0.9254902, a: 1}
  m_inactiveColor: {r: 1, g: 0.98039216, b: 0.266, a: 1}
  m_stabilizationColor: {r: 0.4627451, g: 0.4627451, b: 0.4627451, a: 1}
  m_renderer: {fileID: 212605084647709956}
  useColorSwap: 0
--- !u!212 &212605084647709956
SpriteRenderer:
  m_ObjectHideFlags: 1
  m_PrefabParentObject: {fileID: 0}
  m_PrefabInternal: {fileID: 100100000}
  m_GameObject: {fileID: 1045788361442276}
  m_Enabled: 1
  m_CastShadows: 0
  m_ReceiveShadows: 0
  m_DynamicOccludee: 1
  m_MotionVectors: 1
  m_LightProbeUsage: 1
  m_ReflectionProbeUsage: 1
  m_RenderingLayerMask: 4294967295
  m_Materials:
  - {fileID: 10754, guid: 0000000000000000f000000000000000, type: 0}
  m_StaticBatchInfo:
    firstSubMesh: 0
    subMeshCount: 0
  m_StaticBatchRoot: {fileID: 0}
  m_ProbeAnchor: {fileID: 0}
  m_LightProbeVolumeOverride: {fileID: 0}
  m_ScaleInLightmap: 1
  m_PreserveUVs: 0
  m_IgnoreNormalsForChartDetection: 0
  m_ImportantGI: 0
  m_StitchLightmapSeams: 0
  m_SelectedEditorRenderState: 0
  m_MinimumChartSize: 4
  m_AutoUVMaxDistance: 0.5
  m_AutoUVMaxAngle: 89
  m_LightmapParameters: {fileID: 0}
  m_SortingLayerID: 834332851
  m_SortingLayer: 1
  m_SortingOrder: 1
  m_Sprite: {fileID: 21300000, guid: 9ba5f99caa4bee14aa816be80f07d54f, type: 3}
  m_Color: {r: 1, g: 1, b: 1, a: 1}
  m_FlipX: 0
  m_FlipY: 0
  m_DrawMode: 0
  m_Size: {x: 5.12, y: 5.12}
  m_AdaptiveModeThreshold: 0.5
  m_SpriteTileMode: 0
  m_WasSpriteAssigned: 1
  m_MaskInteraction: 0
