{
    "isSaved": false,
    "score": 3,
    "time": 27.132080078125,
    "activeObjects": [
        {
            "marker": "Skins/MathSkin/Box",
            "Position": {
                "x": -20.18260955810547,
                "y": -36.39964294433594,
                "z": 12.0
            },
            "Rotation": {
                "x": 0.0,
                "y": 0.0,
                "z": -6.278329465203569e-7,
                "w": -1.0
            }
        },
        {
            "marker": "Skins/MathSkin/Box",
            "Position": {
                "x": 14.291489601135254,
                "y": -36.39963912963867,
                "z": 12.0
            },
            "Rotation": {
                "x": 0.0,
                "y": 0.0,
                "z": -1.0,
                "w": 2.631800555263908e-9
            }
        },
        {
            "marker": "Skins/MathSkin/Rectangle",
            "Position": {
                "x": -11.253776550292969,
                "y": -34.499385833740237,
                "z": 12.0
            },
            "Rotation": {
                "x": 0.0,
                "y": 0.0,
                "z": -0.7070750594139099,
                "w": -0.7071384787559509
            }
        },
        {
            "marker": "Skins/MathSkin/HexagonSmall",
            "Position": {
                "x": -11.724770545959473,
                "y": -25.952056884765626,
                "z": 12.0
            },
            "Rotation": {
                "x": 0.0,
                "y": 0.0,
                "z": 0.8661977648735046,
                "w": -0.49970147013664248
            }
        }
    ],
    "inactiveObjects": [
        {
            "marker": "Skins/MathSkin/HexagonSmall",
            "Position": {
                "x": -0.2304164171218872,
                "y": -15.31065559387207,
                "z": 12.0
            },
            "Rotation": {
                "x": 0.0,
                "y": 0.0,
                "z": -8.742277657347586e-8,
                "w": -1.0
            }
        },
        {
            "marker": "Skins/MathSkin/Rectangle",
            "Position": {
                "x": -0.42428091168403628,
                "y": -6.709366321563721,
                "z": 12.0
            },
            "Rotation": {
                "x": 0.0,
                "y": 0.0,
                "z": 0.7071068286895752,
                "w": -0.7071068286895752
            }
        }
    ]
}